{
  "success": true,
  "data": {
    "current_page": 1,
    "data": [
      {
        "content": "<p class=\"Judgename1\" style=\"\">RANJAN GOGOI, J.</p>\r\n\r\n<p class=\"Text\" style=\"\"><b><span style=\"color:windowtext\">SLP (C) NO.34336 OF 2009</span></b><span style=\"color:windowtext\"><o:p></o:p></span></p>\r\n\r\n<p class=\"Text\" style=\"\"><b><span style=\"color:windowtext\">1. </span></b><span style=\"color:windowtext\">Leave granted.<o:p></o:p></span></p>\r\n\r\n<p class=\"Text\" style=\"\"><b><span style=\"color:windowtext\">2. </span></b><span style=\"color:windowtext\">In the year 1999, to be precise on 12th Februa",
        "original_content": "<p class=\"Judgename1\" style=\"\">RANJAN GOGOI, J.</p>\r\n\r\n<p class=\"Text\" style=\"\"><b><span style=\"color:windowtext\">SLP (C) NO.34336 OF 2009</span></b><span style=\"color:windowtext\"><o:p></o:p></span></p>\r\n\r\n<p class=\"Text\" style=\"\"><b><span style=\"color:windowtext\">1. </span></b><span style=\"color:windowtext\">Leave granted.<o:p></o:p></span></p>\r\n\r\n<p class=\"Text\" style=\"\"><b><span style=\"color:windowtext\">2. </span></b><span style=\"color:windowtext\">In the year 1999, to be precise on 12th February, 1999, the Rourke",
        "created_at": "2018-02-12 00:00:00",
        "url": "46dBv4nd79",
        "id": "46dBv4nd79",
        "title": "Steel Authority of India Ltd. v. Choudhary Tilotama Das & Ors.",
        "url_title": "steel-authority-of-india-ltd-v-choudhary-tilotama-das-ors",
        "appellant": "Steel Authority of India Ltd.",
        "respondent": "Choudhary Tilotama Das & Ors.",
        "citation_number": "JT 2018 (2) SC 282",
        "org_citation_number": "JT 2018 (2) SC 282"
      },
      {
        "content": "<p class=\"Judgename1\" style=\"\">Kurian Joseph, J.</p>\r\n\r\n<p class=\"Text\" style=\"\"><b><span style=\"color:windowtext\">1. </span></b><span style=\"color:windowtext\">Leave granted.<o:p></o:p></span></p>\r\n\r\n<p class=\"Text\" style=\"\"><b><span style=\"color:windowtext\">2. </span></b><span style=\"color:windowtext\">The appellant was convicted by the Sessions Judge, Mehsana (State of Gujarat) for offences under Sections 498A and 201 of the Indian Penal Code, 1860 (hereinafter referred to as &ldquo;the IPC&rdq",
        "original_content": "<p class=\"Judgename1\" style=\"\">Kurian Joseph, J.</p>\r\n\r\n<p class=\"Text\" style=\"\"><b><span style=\"color:windowtext\">1. </span></b><span style=\"color:windowtext\">Leave granted.<o:p></o:p></span></p>\r\n\r\n<p class=\"Text\" style=\"\"><b><span style=\"color:windowtext\">2. </span></b><span style=\"color:windowtext\">The appellant was convicted by the Sessions Judge, Mehsana (State of Gujarat) for offences under Sections 498A and 201 of the Indian Penal Code, 1860 (hereinafter referred to as &ldquo;the IPC&rdquo;). A sentence of ",
        "created_at": "2018-02-12 00:00:00",
        "url": "w9aAr41bvM",
        "id": "w9aAr41bvM",
        "title": "Dinesh Kumar Kalidas Patel v. The State of Gujarat",
        "url_title": "dinesh-kumar-kalidas-patel-v-the-state-of-gujarat",
        "appellant": "Dinesh Kumar Kalidas Patel",
        "respondent": "The State of Gujarat",
        "citation_number": "JT 2018 (2) SC 268",
        "org_citation_number": "JT 2018 (2) SC 268"
      },
      {
        "content": "<p class=\"Judgename1\">RANJAN GOGOI, J.</p>\r\n\r\n<p class=\"Text\"><b><span style=\"color:windowtext\">1. </span></b><span style=\"color:windowtext\">Leave granted.<o:p></o:p></span></p>\r\n\r\n<p class=\"Text\"><b><span style=\"color:windowtext\">2. </span></b><span style=\"color:windowtext\">The appellant &ndash; Maharashtra Housing Development Authority through its Chief Officer issued e-Tender notice inviting proposals for the work of &ldquo;Technical designing, coordination and construction for rehabilitation",
        "original_content": "<p class=\"Judgename1\">RANJAN GOGOI, J.</p>\r\n\r\n<p class=\"Text\"><b><span style=\"color:windowtext\">1. </span></b><span style=\"color:windowtext\">Leave granted.<o:p></o:p></span></p>\r\n\r\n<p class=\"Text\"><b><span style=\"color:windowtext\">2. </span></b><span style=\"color:windowtext\">The appellant &ndash; Maharashtra Housing Development Authority through its Chief Officer issued e-Tender notice inviting proposals for the work of &ldquo;Technical designing, coordination and construction for rehabilitation/sale/ commercial/am",
        "created_at": "2018-02-12 00:00:00",
        "url": "xkazAZ7eJ0",
        "id": "xkazAZ7eJ0",
        "title": "Maharashtra Housing Development Authority v. Shapoorji  Pallonji  & Company Private Limited & Ors.",
        "url_title": "maharashtra-housing-development-authority-v-shapoorji-pallonji-company",
        "appellant": "Maharashtra Housing Development Authority",
        "respondent": "Shapoorji  Pallonji  & Company Private Limited & Ors.",
        "citation_number": "JT 2018 (2) SC 265",
        "org_citation_number": "JT 2018 (2) SC 265"
      },
      {
        "content": "<p class=\"Judgename1\" style=\"\">A.M. Khanwilkar, J.</p>\r\n\r\n<p class=\"Text\" style=\"\"><b><span style=\"color:windowtext\">1. </span></b><span style=\"color:windowtext\">This appeal emanates from the judgment and order passed by the High Court of Judicature at Madras dated 16.04.2013 in C.M.A. No.2819 of 2012. The High Court allowed the prayer for grant of enhanced compensation amount in favour of the appellants. The appellants seek further enhancement of compensation amount on the ground that the High ",
        "original_content": "<p class=\"Judgename1\" style=\"\">A.M. Khanwilkar, J.</p>\r\n\r\n<p class=\"Text\" style=\"\"><b><span style=\"color:windowtext\">1. </span></b><span style=\"color:windowtext\">This appeal emanates from the judgment and order passed by the High Court of Judicature at Madras dated 16.04.2013 in C.M.A. No.2819 of 2012. The High Court allowed the prayer for grant of enhanced compensation amount in favour of the appellants. The appellants seek further enhancement of compensation amount on the ground that the High Court has not provid",
        "created_at": "2018-02-09 00:00:00",
        "url": "MYerpOkbOB",
        "id": "MYerpOkbOB",
        "title": "Munusamy & Ors. v. The Managing Director, Tamil Nadu State Transport Corporation (Villupuram) Ltd.",
        "url_title": "munusamy-ors-v-the-managing-director-tamil-nadu-state-transport-corpor",
        "appellant": "Munusamy & Ors.",
        "respondent": "The Managing Director, Tamil Nadu State Transport Corporation (Villupuram) Ltd.",
        "citation_number": "JT 2018 (2) SC 225",
        "org_citation_number": "JT 2018 (2) SC 225"
      },
      {
        "content": "<p class=\"Judgename1\" style=\"\">A.M. Khanwilkar, J.</p>\r\n\r\n<p class=\"Text\" style=\"\"><b><span style=\"color:windowtext\">1. </span></b><span style=\"color:windowtext\">These appeals take exception to the judgment and order dated 1st February, 2016 passed by the High Court of Punjab and Haryana at Chandigarh in F.A.O. Nos.1179, 1180, 1181, 1182, 1183, 1318, 1452, 4596, 4597 &amp; 4598 of 2013, whereby the High Court modified the award passed by the Motor Accident Claims Tribunal, Yamuna Nagar, Jagadhar",
        "original_content": "<p class=\"Judgename1\" style=\"\">A.M. Khanwilkar, J.</p>\r\n\r\n<p class=\"Text\" style=\"\"><b><span style=\"color:windowtext\">1. </span></b><span style=\"color:windowtext\">These appeals take exception to the judgment and order dated 1st February, 2016 passed by the High Court of Punjab and Haryana at Chandigarh in F.A.O. Nos.1179, 1180, 1181, 1182, 1183, 1318, 1452, 4596, 4597 &amp; 4598 of 2013, whereby the High Court modified the award passed by the Motor Accident Claims Tribunal, Yamuna Nagar, Jagadhari, on the finding th",
        "created_at": "2018-02-09 00:00:00",
        "url": "8mepn0rbMy",
        "id": "8mepn0rbMy",
        "title": "Archit Saini and Anr. v. The Oriental Insurance Company Ltd. and Ors.",
        "url_title": "archit-saini-and-anr-v-the-oriental-insurance-company-ltd-and-ors",
        "appellant": "Archit Saini and Anr.",
        "respondent": "The Oriental Insurance Company Ltd. and Ors.",
        "citation_number": "JT 2018 (2) SC 206",
        "org_citation_number": "JT 2018 (2) SC 206"
      },
      {
        "content": "<p class=\"Judgename1\">A.M. Khanwilkar, J.</p>\r\n\r\n<p class=\"Text\"><b><span style=\"color:windowtext\">1. </span></b><span style=\"color:windowtext\">The sole question to be answered in this appeal is: whether the High Court was right in applying multiplier 14 for determining compensation amount in a motor accident claim case in reference to the age of parents of the deceased whilst relying on the decision of this Court in <b>Ashvinbhai Jayantilal Modi v. Ramkaran Ramchandra Sharma and Anr. </b>[2015 ",
        "original_content": "<p class=\"Judgename1\">A.M. Khanwilkar, J.</p>\r\n\r\n<p class=\"Text\"><b><span style=\"color:windowtext\">1. </span></b><span style=\"color:windowtext\">The sole question to be answered in this appeal is: whether the High Court was right in applying multiplier 14 for determining compensation amount in a motor accident claim case in reference to the age of parents of the deceased whilst relying on the decision of this Court in <b>Ashvinbhai Jayantilal Modi v. Ramkaran Ramchandra Sharma and Anr. </b>[2015 (2) SCC 180]?<o:p></",
        "created_at": "2018-02-09 00:00:00",
        "url": "JxbomqNegw",
        "id": "JxbomqNegw",
        "title": "Sube Singh and Anr. v. Shyam Singh (Dead) and Ors.",
        "url_title": "sube-singh-and-anr-v-shyam-singh-dead-and-ors",
        "appellant": "Sube Singh and Anr.",
        "respondent": "Shyam Singh (Dead) and Ors.",
        "citation_number": "JT 2018 (2) SC 204",
        "org_citation_number": "JT 2018 (2) SC 204"
      },
      {
        "content": "<p class=\"Judgename1\" style=\"\">ASHOK BHUSHAN, J.</p>\r\n\r\n<p class=\"Text\" style=\"\"><b><span style=\"color:windowtext\">1. </span></b><span style=\"color:windowtext\">The State of Madhya Pradesh is in appeal against the judgment of Division Bench of the High Court of Madhya Pradesh, Bench at Gwalior dated 22.03.2017 by which judgment writ appeal filed by the State questioning the judgment of the learned Single Judge dated 17.03.2015 has been dismissed.<o:p></o:p></span></p>\r\n\r\n<p class=\"Text\" style=\"\">",
        "original_content": "<p class=\"Judgename1\" style=\"\">ASHOK BHUSHAN, J.</p>\r\n\r\n<p class=\"Text\" style=\"\"><b><span style=\"color:windowtext\">1. </span></b><span style=\"color:windowtext\">The State of Madhya Pradesh is in appeal against the judgment of Division Bench of the High Court of Madhya Pradesh, Bench at Gwalior dated 22.03.2017 by which judgment writ appeal filed by the State questioning the judgment of the learned Single Judge dated 17.03.2015 has been dismissed.<o:p></o:p></span></p>\r\n\r\n<p class=\"Text\" style=\"\"><b><span style=\"colo",
        "created_at": "2018-02-08 00:00:00",
        "url": "MvbmkoAeYA",
        "id": "MvbmkoAeYA",
        "title": "State of Madhya Pradesh Through Principal Secretary & Anr. v. Mahendra Gupta & Ors.",
        "url_title": "state-of-madhya-pradesh-through-principal-secretary-anr-v-mahendra-gup",
        "appellant": "State of Madhya Pradesh Through Principal Secretary & Anr.",
        "respondent": "Mahendra Gupta & Ors.",
        "citation_number": "JT 2018 (2) SC 177",
        "org_citation_number": "JT 2018 (2) SC 177"
      },
      {
        "content": "<p class=\"Judgename1\" style=\"\">R.K. Agrawal, J.</p>\r\n\r\n<p class=\"Text\" style=\"\"><b><span style=\"color:windowtext\">1.</span></b><span style=\"color:windowtext\"> Leave granted.<o:p></o:p></span></p>\r\n\r\n<p class=\"Text\" style=\"\"><b><span style=\"color:windowtext\">2.</span></b><span style=\"color:windowtext\"> This appeal is directed against the final judgment and order dated 12.01.2015 passed by the High Court of Karnataka at Bengaluru in C.M.P. No. 35 of 2014 whereby learned single Judge of the High Co",
        "original_content": "<p class=\"Judgename1\" style=\"\">R.K. Agrawal, J.</p>\r\n\r\n<p class=\"Text\" style=\"\"><b><span style=\"color:windowtext\">1.</span></b><span style=\"color:windowtext\"> Leave granted.<o:p></o:p></span></p>\r\n\r\n<p class=\"Text\" style=\"\"><b><span style=\"color:windowtext\">2.</span></b><span style=\"color:windowtext\"> This appeal is directed against the final judgment and order dated 12.01.2015 passed by the High Court of Karnataka at Bengaluru in C.M.P. No. 35 of 2014 whereby learned single Judge of the High Court allowed the peti",
        "created_at": "2018-02-07 00:00:00",
        "url": "4zbqoNRepr",
        "id": "4zbqoNRepr",
        "title": "M/s ONGC Mangalore Petrochemicals Ltd. v. M/s ANS Constructions Ltd. & Anr.",
        "url_title": "m-s-ongc-mangalore-petrochemicals-ltd-v-m-s-ans-constructions-ltd-anr",
        "appellant": "M/s ONGC Mangalore Petrochemicals Ltd.",
        "respondent": "M/s ANS Constructions Ltd. & Anr.",
        "citation_number": "JT 2018 (2) SC 212",
        "org_citation_number": "JT 2018 (2) SC 212"
      },
      {
        "content": "<p class=\"Judgename1\" style=\"\">R.F. NARIMAN, J.</p>\r\n\r\n<p class=\"Text\" style=\"\"><b><span style=\"color:windowtext\">1. </span></b><span style=\"color:windowtext\">Leave granted.<o:p></o:p></span></p>\r\n\r\n<p class=\"Text\" style=\"\"><b><span style=\"color:windowtext\">2. </span></b><span style=\"color:windowtext\">The present case concerns a purchase notice issued under Section 49 of the Maharashtra Regional Town Planning Act, 1966 (hereinafter referred to as &ldquo;the Act&rdquo;) and, in particular, the ef",
        "original_content": "<p class=\"Judgename1\" style=\"\">R.F. NARIMAN, J.</p>\r\n\r\n<p class=\"Text\" style=\"\"><b><span style=\"color:windowtext\">1. </span></b><span style=\"color:windowtext\">Leave granted.<o:p></o:p></span></p>\r\n\r\n<p class=\"Text\" style=\"\"><b><span style=\"color:windowtext\">2. </span></b><span style=\"color:windowtext\">The present case concerns a purchase notice issued under Section 49 of the Maharashtra Regional Town Planning Act, 1966 (hereinafter referred to as &ldquo;the Act&rdquo;) and, in particular, the effect of Sub-section ",
        "created_at": "2018-02-06 00:00:00",
        "url": "openlpDb7A",
        "id": "openlpDb7A",
        "title": "Chhabildas v. The State of Maharashtra & Ors.",
        "url_title": "chhabildas-v-the-state-of-maharashtra-ors",
        "appellant": "Chhabildas",
        "respondent": "The State of Maharashtra & Ors.",
        "citation_number": "JT 2018 (2) SC 188",
        "org_citation_number": "JT 2018 (2) SC 188"
      },
      {
        "content": "<p class=\"Judgename1\" style=\"\">Abhay Manohar Sapre, J.</p>\r\n\r\n<p class=\"Text\" style=\"margin-bottom:0cm;margin-bottom:.0001pt;\"><b><span style=\"color:windowtext\">In CIVIL APPEAL NOs. &hellip;&hellip;&hellip; OF 2018</span></b><span style=\"color:windowtext\"><o:p></o:p></span></p>\r\n\r\n<p class=\"Text\" style=\"\"><span style=\"color:windowtext\">[Arising out of SLP (C) Nos. 4689-4698 of 2012]<o:p></o:p></span></p>\r\n\r\n<p class=\"Text\" style=\"\"><b><span style=\"color:windowtext\">1. </span></b><span style=\"col",
        "original_content": "<p class=\"Judgename1\" style=\"\">Abhay Manohar Sapre, J.</p>\r\n\r\n<p class=\"Text\" style=\"margin-bottom:0cm;margin-bottom:.0001pt;\"><b><span style=\"color:windowtext\">In CIVIL APPEAL NOs. &hellip;&hellip;&hellip; OF 2018</span></b><span style=\"color:windowtext\"><o:p></o:p></span></p>\r\n\r\n<p class=\"Text\" style=\"\"><span style=\"color:windowtext\">[Arising out of SLP (C) Nos. 4689-4698 of 2012]<o:p></o:p></span></p>\r\n\r\n<p class=\"Text\" style=\"\"><b><span style=\"color:windowtext\">1. </span></b><span style=\"color:windowtext\">Leave",
        "created_at": "2018-02-06 00:00:00",
        "url": "pnel0nJeKB",
        "id": "pnel0nJeKB",
        "title": "Union of India & Anr. v. Pushpavathi & Ors. Etc.",
        "url_title": "union-of-india-anr-v-pushpavathi-ors-etc",
        "appellant": "Union of India & Anr.",
        "respondent": "Pushpavathi & Ors. Etc.",
        "citation_number": "JT 2018 (2) SC 166",
        "org_citation_number": "JT 2018 (2) SC 166"
      }
    ],
    "from": 1,
    "last_page": 6,
    "path": "http://judgementstoday.com/api/judgements",
    "per_page": 10,
    "to": 10,
    "total": 56
  }
}